<?xml version="1.0" encoding="utf-8"?>
<!-- Generator: Adobe Illustrator 22.1.0, SVG Export Plug-In . SVG Version: 6.00 Build 0)  -->
<svg version="1.1" id="Layer_1" xmlns="http://www.w3.org/2000/svg" xmlns:xlink="http://www.w3.org/1999/xlink" x="0px" y="0px"
	 viewBox="0 0 613 1839" style="enable-background:new 0 0 613 1839;" xml:space="preserve">
<style type="text/css">
	.st0{opacity:0.3;enable-background:new    ;}
	.st1{fill:none;stroke:#FFFFFF;stroke-width:2;stroke-linecap:round;stroke-miterlimit:10;stroke-dasharray:23.82,17.865;}
	.st2{display:none;fill:#FFFFFF;stroke:#000000;stroke-miterlimit:10;}
</style>
<g id="photo" transform="translate(-240 -180)">
	<path id="shadow" class="st0" d="M852.5,1329h-612V870h612V1329z M297.9,917.8c-3.5,0-6.4,2.9-6.4,6.4v350.6c0,3.5,2.9,6.4,6.4,6.4
		h497.2c3.5,0,6.4-2.9,6.4-6.4V924.2c0-3.5-2.9-6.4-6.4-6.4L297.9,917.8L297.9,917.8z"/>
	<g id="lines" transform="translate(319 299)">
		<path id="Path_187" class="st1" d="M482.5,974.6c0,4.2-2.9,7.6-6.4,7.6H-21.1c-3.5,0-6.4-3.4-6.4-7.6V626.4c0-4.2,2.9-7.6,6.4-7.6
			h497.2c3.5,0,6.4,3.4,6.4,7.6V974.6L482.5,974.6z"/>
	</g>
</g>
<rect x="0.5" y="0.5" class="st2" width="612" height="1838"/>
<rect x="0.8" class="st0" width="612" height="690"/>
<rect x="0.7" y="1149" class="st0" width="612" height="690"/>
</svg>
